%YAML 1.1
%TAG !u! tag:unity3d.com,2011:
--- !u!114 &11400000
MonoBehaviour:
  m_ObjectHideFlags: 0
  m_CorrespondingSourceObject: {fileID: 0}
  m_PrefabInstance: {fileID: 0}
  m_PrefabAsset: {fileID: 0}
  m_GameObject: {fileID: 0}
  m_Enabled: 1
  m_EditorHideFlags: 0
  m_Script: {fileID: 11500000, guid: 91372a73a3ad94f4893d458372c74db0, type: 3}
  m_Name: BossRoomCollectionMeta
  m_EditorClassIdentifier: 
  _serializedBuildIndexToRoomMetadata:
  - buildIndex: 8
    roomMetadata:
      doorOffsets:
        doorOffsets:
        - doorOffsetList:
          - height: 3
            clockwiseWidth: 1
            counterClockwiseWidth: 3
            segmentIndex:
              x: 1
              y: 2
            doorDirection: 0
          - height: 3
            clockwiseWidth: 3
            counterClockwiseWidth: 1
            segmentIndex:
              x: 3
              y: 2
            doorDirection: 0
        - doorOffsetList:
          - height: 5
            clockwiseWidth: 1
            counterClockwiseWidth: 1
            segmentIndex:
              x: 4
              y: 1
            doorDirection: 1
        - doorOffsetList:
          - height: 3
            clockwiseWidth: 3
            counterClockwiseWidth: 1
            segmentIndex:
              x: 1
              y: 0
            doorDirection: 2
          - height: 3
            clockwiseWidth: 1
            counterClockwiseWidth: 3
            segmentIndex:
              x: 3
              y: 0
            doorDirection: 2
        - doorOffsetList:
          - height: 5
            clockwiseWidth: 1
            counterClockwiseWidth: 1
            segmentIndex:
              x: 0
              y: 1
            doorDirection: 3
      testInt: 0
