%YAML 1.1
%TAG !u! tag:unity3d.com,2011:
--- !u!1045 &1
EditorBuildSettings:
  m_ObjectHideFlags: 0
  serializedVersion: 2
  m_Scenes:
  - enabled: 1
    path: Assets/Scenes/StartingRooms/SceneWithShootyBoi.unity
    guid: 7238dbdd15adb4ee89ccaffe85abf5ff
  - enabled: 1
    path: Assets/Scenes/LoadableRooms/loadableScene.unity
    guid: 62e551650f77fa3489e879760caa02e4
  - enabled: 1
    path: Assets/Scenes/LoadableRooms/loadableScene2.unity
    guid: 74303e9a7ed76447d9325efb3edefc4e
  - enabled: 1
    path: Assets/Scenes/LoadableRooms/loadableScene3.unity
    guid: b9e2dca011dea4eaba094e406516be07
  - enabled: 1
    path: Assets/Scenes/LoadableRooms/Room3x1h.unity
    guid: 50e2ea8a837f846b2b2c25262470b51e
  - enabled: 1
    path: Assets/Scenes/LoadableRooms/Room1x3v.unity
    guid: 9bf141db9b8714a6280edaea6a09faf5
  - enabled: 1
    path: Assets/Scenes/StartingRooms/StartingRoom-3x2-r.unity
    guid: 340836f0bd1f64663aea899897359bc2
  - enabled: 1
    path: Assets/Scenes/mainmenu.unity
    guid: 6c7ae089edcc13649bf6e2a7244d01e1
  - enabled: 1
    path: Assets/Scenes/BossRooms/exitableScene.unity
    guid: b731c5e510759524dbd52b468b5fe524
  m_configObjects: {}
